HW06
…
[1] "https://newsapi.org/v2/everything?q=SpaceX&from=2024-10-01&sortBy=publishedAt&apiKey=f2ea85241c29455584a2681f775546e2"

# View the results
print("Tesla Articles:")

[1] "Tesla Articles:"

print(tesla_articles)

# A tibble: 100 × 8
   source$id $name author title description url   urlToImage publishedAt content
   <chr>     <chr> <chr>  <chr> <chr>       <chr> <chr>      <chr>       <chr>  
 1 <NA>      Huff… Danie… Elon… "Future Co… http… https://i… 2024-10-16… "A sup…
 2 <NA>      Twea… Antho… ASUS… "ASUS does… http… https://s… 2024-10-16… "ASUS …
 3 <NA>      Xata… Steve… Prob… "Es un cua… http… https://i… 2024-10-16… "Es un…
 4 <NA>      Theg… Paul … Due … "The follo… http… https://w… 2024-10-16… "The f…
 5 la-nacion La N… BBC M… Cómo… "El destin… http… https://r… 2024-10-16… "Georg…
 6 <NA>      Elec… Jo Bo… Tesl… "On today’… http… https://i… 2024-10-16… "On to…
 7 <NA>      Eles… Enriq… Musk… "El evento… http… https://s… 2024-10-16… "El ev…
 8 <NA>      Slas… feedf… How … "How Tesla… http… <NA>       2024-10-16… "\"Con…
 9 <NA>      Twea… Antho… NVID… "NVIDIA CE… http… https://s… 2024-10-16… "NVIDI…
10 <NA>      Stor… 國際…  特斯… "特斯拉執…  http… https://i… 2024-10-16… "Cyber…
# ℹ 90 more rows

#View(tesla_articles)

print("SpaceX Articles:")

[1] "SpaceX Articles:"

print(spacex_articles)

# A tibble: 100 × 8
   source$id $name author title description url   urlToImage publishedAt content
   <chr>     <chr> <chr>  <chr> <chr>       <chr> <chr>      <chr>       <chr>  
 1 <NA>      Slas… Anony… The … "Overall, … http… <NA>       2024-10-16… "Overa…
 2 <NA>      Twea… Antho… ASUS… "ASUS does… http… https://s… 2024-10-16… "ASUS …
 3 <NA>      Eles… Enriq… Musk… "El evento… http… https://s… 2024-10-16… "El ev…
 4 <NA>      Twea… Antho… NVID… "NVIDIA CE… http… https://s… 2024-10-16… "NVIDI…
 5 <NA>      Yaho… Yahoo… 「筷… "美國太空…  http… https://s… 2024-10-16… "[Newt…
 6 <NA>      Tech… Unwir… Spac… "馬斯克（E… http… https://i… 2024-10-16… "Elon …
 7 <NA>      Tist… T.B    김건… "Trump cla… http… https://i… 2024-10-16… "Trump…
 8 <NA>      Live… Gulve… Spec… "Reliance … http… https://w… 2024-10-16… "Relia…
 9 <NA>      CNET  <NA>   株式… "株式会社…  http… https://j… 2024-10-16… "20241…
10 <NA>      Nauk… Danie… Lanz… "En las úl… http… https://d… 2024-10-15… "En la…
# ℹ 90 more rows
#View(spacex_articles)

4.With one of your objects, summarize the name of the source for each article. That is, find a one-way contingency table for this information.

# One- way contingency table for Tesla Articles
source_summary <- tesla_articles$source |>
  mutate(name = as.character(name)) |>  
  group_by(name) |>                     
  summarise(count = n()) |>              
  arrange(desc(count))                   

# Print the contingency table
print(source_summary)

# A tibble: 63 × 2
   name                count
   <chr>               <int>
 1 Electrek                6
 2 Feber.se                6
 3 Slashdot.org            6
 4 Yahoo Entertainment     6
 5 Aftonbladet.se          5
 6 Xataka.com.mx           5
 7 Gizmodo.com             3
 8 Autocar                 2
 9 Berliner Morgenpost     2
10 DIE WELT                2
# ℹ 53 more rows
…
# View the modified data frames
print("Processed Tesla Articles:")

[1] "Processed Tesla Articles:"

print(tesla_articles_processed)

# A tibble: 100 × 9
   source$id $name author title description url   urlToImage publishedAt        
   <chr>     <chr> <chr>  <chr> <chr>       <chr> <chr>      <dttm>             
 1 <NA>      Yaho… 財訊…  晶片… "【財訊快…  http… https://s… 2024-10-15 16:28:16
 2 <NA>      Afto… <NA>   Varn… "Senaste n… http… https://i… 2024-10-15 16:29:22
 3 <NA>      Auto… Nick … Xpen… "Xpeng G6 … http… https://w… 2024-10-15 16:30:32
 4 die-zeit  Die … ZEIT … Tesl… "Das Tesla… http… https://i… 2024-10-15 16:31:53
 5 <NA>      Elec… Miche… Niss… "Nissan Ar… http… https://i… 2024-10-15 16:35:15
 6 <NA>      Febe… Hugo … YouT… "Gemensamm… http… https://s… 2024-10-15 16:40:00
 7 business… Busi… hlang… The … "Anthony L… http… https://i… 2024-10-15 16:40:07
 8 <NA>      STER… STERN… Elek… "Für den b… http… https://i… 2024-10-15 16:45:50
 9 der-tage… Der … Der T… Elek… "Für den b… http… https://w… 2024-10-15 16:47:28
10 <NA>      Oues… Par J… Faut… "Les marqu… http… https://m… 2024-10-15 16:50:01
# ℹ 90 more rows
# ℹ 2 more variables: content <chr>, pub_diff <drtn>

#View(tesla_articles_processed)

print("Processed Spacex Articles:")

[1] "Processed Spacex Articles:"

print(spacex_articles_processed)

# A tibble: 100 × 9
   source$id $name author title description url   urlToImage publishedAt        
   <chr>     <chr> <chr>  <chr> <chr>       <chr> <chr>      <dttm>             
 1 <NA>      Tele… Marty… "Glo… "With just… http… https://a… 2024-10-15 12:56:30
 2 <NA>      Spac… andre… "The… "Leaders o… http… https://c… 2024-10-15 13:00:09
 3 <NA>      Anty… Patry… "Chi… "Nie tylko… http… https://s… 2024-10-15 13:00:13
 4 <NA>      WFTV… Gene … "WAT… "WATCH: Fa… http… https://c… 2024-10-15 13:01:32
 5 techcrun… Tech… Aria … "Inv… "Inversion… http… https://t… 2024-10-15 13:03:31
 6 <NA>      Unex… unexp… "NAS… "The space… http… https://w… 2024-10-15 13:06:08
 7 <NA>      N-tv… n-tv … "Mög… "Schon mit… http… https://b… 2024-10-15 13:11:31
 8 <NA>      Yaho… Sanji… "iPa… "2024年10…  http… <NA>       2024-10-15 13:13:26
 9 <NA>      Tass… <NA>   "Бол… "Михаил Ко… http… https://c… 2024-10-15 13:15:01
10 <NA>      Tvn2… ps     "Wyj… "Przez kil… http… https://t… 2024-10-15 13:18:21
# ℹ 90 more rows
# ℹ 2 more variables: content <chr>, pub_diff <drtn>
…
